{
    "disableAutoUpdate": false,
    "name": "gquest-utils",
    "author": "const.",
    "description": "Tool aimed at guild quests, with auto accept and completion as its main feature.",
    "options": {
        "niceName": "Guild Quest Utils",
        "guiName": "Guild Quest Utils",
        "settingsFile": "config.json",
        "settingsMigrator": "settings_migrator.js",
        "settingsVersion": 1,
        "reloadable": true
    },
    "supportUrl": "https://gitlab.com/neverknowsbest/gquest-utils/-/issues",
    "servers": ["https://gitlab.com/neverknowsbest/gquest-utils/-/raw/master/"],
    "version": "1.0.0"
}